<svg width="32" height="32" viewBox="0 0 32 32" fill="none" xmlns="http://www.w3.org/2000/svg">
<path d="M18.1574 29.167V16.7749H22.317L22.9398 11.9455H18.1574V8.86203C18.1574 7.46378 18.5458 6.51091 20.5509 6.51091L23.1083 6.50978V2.19041C22.6658 2.13153 21.1478 2.00003 19.3818 2.00003C15.6945 2.00003 13.1703 4.25066 13.1703 8.38391V11.9455H9V16.7749H13.1703V29.167H18.1574Z" fill="#395185"/>
</svg>
